[gd_scene load_steps=8 format=2]

[ext_resource path="res://prefabs/sparks.gd" type="Script" id=1]
[ext_resource path="res://textures/particles/Rotated/trace_03_rotated.png" type="Texture" id=2]

[sub_resource type="Curve" id=1]
_data = [ Vector2( 0, 1 ), 0.0, 0.0, 0, 0, Vector2( 1, 0 ), 0.0, 0.0, 0, 0 ]

[sub_resource type="CurveTexture" id=2]
width = 32
curve = SubResource( 1 )

[sub_resource type="ParticlesMaterial" id=3]
initial_velocity = 4.0
initial_velocity_random = 0.24
angular_velocity = 165.52
angular_velocity_random = 0.74
damping = 12.41
scale_curve = SubResource( 2 )
color = Color( 1, 0.890196, 0.615686, 1 )

[sub_resource type="SpatialMaterial" id=4]
flags_transparent = true
flags_unshaded = true
vertex_color_use_as_albedo = true
params_blend_mode = 1
params_billboard_mode = 3
params_billboard_keep_scale = true
particles_anim_h_frames = 1
particles_anim_v_frames = 1
particles_anim_loop = false
albedo_texture = ExtResource( 2 )

[sub_resource type="QuadMesh" id=5]
material = SubResource( 4 )

[node name="BulletSprayRoot" type="Spatial"]
script = ExtResource( 1 )

[node name="Particles" type="Particles" parent="."]
cast_shadow = 0
emitting = false
amount = 32
one_shot = true
speed_scale = 3.0
explosiveness = 0.9
visibility_aabb = AABB( -1, -2.89595, -1.7166, 3.04074, 4.22108, 3.24886 )
process_material = SubResource( 3 )
draw_pass_1 = SubResource( 5 )
